lipid_markers • HealthMarkers
…
Set na_action = "omit" when you need complete-case
derived lipid indices.

Missing-data policy

missing <- lipids
missing$TG[4] <- NA

lipid_markers(
  data = missing,
  col_map = list(TC = "TC", HDL_c = "HDL_c", TG = "TG", LDL_c = "LDL_c", BMI = "BMI"),
  na_action = "omit"
)
#> # A tibble: 29 × 7
#>    non_HDL_c remnant_c ratio_TC_HDL ratio_TG_HDL ratio_LDL_HDL ApoB_ApoA1
#>        <dbl>     <dbl>        <dbl>        <dbl>         <dbl>      <dbl>
#>  1      4.47     0.409         5.95        1.07           4.50         NA
#>  2      3.34     0.230         4.34        1.86           3.11         NA
#>  3      4.15     1.44          3.68        0.797          1.75         NA
#>  4      3.32     0.253         3.09        1.01           1.93         NA
#>  5      3.57    -0.279         3.56        1.59           2.77         NA
#>  6      3.88    -0.204         4.45        2.06           3.63         NA
#>  7      4.94     1.90          5.37        1.58           2.69         NA
#>  8      4.85     2.03          4.36        1.67           1.95         NA
#>  9      4.65     2.16          4.73        1.04           2.00         NA
#> 10      3.67     1.66          3.94        1.49           1.61         NA
#> # ℹ 19 more rows
#> # ℹ 1 more variable: TyG_BMI <dbl>

lipid_markers(
  data = missing,
  col_map = list(TC = "TC", HDL_c = "HDL_c", TG = "TG", LDL_c = "LDL_c", BMI = "BMI"),
  na_action = "warn"
)
#> # A tibble: 30 × 7
#>    non_HDL_c remnant_c ratio_TC_HDL ratio_TG_HDL ratio_LDL_HDL ApoB_ApoA1
#>        <dbl>     <dbl>        <dbl>        <dbl>         <dbl>      <dbl>
#>  1      4.47     0.409         5.95        1.07           4.50         NA
#>  2      3.34     0.230         4.34        1.86           3.11         NA
#>  3      4.15     1.44          3.68        0.797          1.75         NA
#>  4      4.11     1.14          5.06       NA              2.93         NA
#>  5      3.32     0.253         3.09        1.01           1.93         NA
#>  6      3.57    -0.279         3.56        1.59           2.77         NA
#>  7      3.88    -0.204         4.45        2.06           3.63         NA
#>  8      4.94     1.90          5.37        1.58           2.69         NA
#>  9      4.85     2.03          4.36        1.67           1.95         NA
#> 10      4.65     2.16          4.73        1.04           2.00         NA
#> # ℹ 20 more rows
#> # ℹ 1 more variable: TyG_BMI <dbl>
…
